{
	"app":"โหมดแอพ",
	"buy":{
		"kyc":"ด้วย ID",
		"p2p":"สองต่อสอง",
		"fiat":"กับเฟียต",
		"crypto":"ด้วย Crypto",
		"other":"สกุลเงินอื่นๆ",
		"prompt":"เลือกวิธีการซื้อ XMR เพื่อแสดงผลลัพธ์"
	},
	"contact":{
		"contact":"ติดต่อเรา",
		"suggest":"แนะนำผู้ค้า Monero",
		"upload":"อัพโหลดรูปภาพ",
		"donate":"บริจาค"
	},
	"cookie":"อนุญาตคุกกี้",
	"disclaim":{
		"exchange":"ระวัง! Find Monero ไม่ได้รับรองการแลกเปลี่ยนใด ๆ เหล่านี้ อย่าลืมค้นคว้าบริการแลกเปลี่ยนใด ๆ แต่ที่สำคัญกว่านั้น พิจารณาเหรียญใด ๆ จากการแลกเปลี่ยนใด ๆ ที่จะสูญหาย ไม่ใช่กุญแจของคุณ ไม่ใช่เหรียญของคุณ",
		"merchant":"การรวมอยู่ในไดเรกทอรีผู้ขายนี้ไม่ใช่การรับรองจาก Find Monero อยู่อย่างปลอดภัย!"
	},
	"donate":"การทำแผนที่และจัดระเบียบโลก Monero ที่เป็นที่รู้จักนั้นถือเป็นงานใหญ่ Find Monero ทุ่มเทให้กับการไม่มีโฆษณาแต่ต้องการความช่วยเหลือทางการเงินเพื่อรักษาตัวเองและเติบโต<br><br>ส่วนเกินของ Find Monero จะนำไปบริจาคให้กับ <a href=\"https://www.monerooutreach.org/merchants/monero-merchant-pos-sticker-kit.html\" target=\"_blank\">โปรแกรม Monero Merchant Sticker Kit</a>",
	"findxmr":"ค้นหา Monero",
	"mapcon":"คุณชอบแผนที่ไหม? คุณงงด้วยว่ามันเป็นการฉายของ Mercator หรือเปล่า? <span class=\"ContributeTrans C1_link\">gitlab.com/monerooutreach/findmonero.org</span>",
	"mapfoot":"Find Monero มาถึงคุณโดย <a href=\"https://www.monerooutreach.org/\" target=\"_blank\">Monero Outreach</a>.",
	"menu":{
		"buy":"ซื้อ XMR ใน##C##",
		"merchant":"พ่อค้า Monero (ใช้ XMR ของคุณ)",
		"gallery":"Monero Geographic: "
	},
	"nav":{
		"mdir":{
			"lbl":"มุมมองไดเรกทอรี",
			"url":"พ่อค้า/"
		},
		"map":{
			"lbl":"มุมมองแผนที่",
			"url":"th/"
		},
		"contact":{
			"lbl":"มีส่วนร่วม",
			"url":"มีส่วนร่วม.html"
		},
		"privacy":{
			"lbl":"ความเป็นส่วนตัวของคุณ",
			"url":"ความเป็นส่วนตัวของคุณ.html"
		},
		"sitemap":{
			"lbl":"แผนผังเว็บไซต์",
			"url":"แผนผังเว็บไซต์.html"
		}
	},
	"or":"หรือ",
	"src":"ที่มา",
	"trans":"โปรด <span class=\"ContributeTrans C1_link\">แจ้งให้เราทราบ</span> หากมีการแปลผิด"
}
