{
	"app":"应用模式",
	"buy":{
		"kyc":"随着ID",
		"p2p":"私下",
		"fiat":"与菲亚特",
		"crypto":"使用加密",
		"other":"其他货币",
		"prompt":"选择 XMR 购买方式显示结果"
	},
	"contact":{
		"contact":"联系我们",
		"suggest":"推荐门罗商人",
		"upload":"上传一张照片",
		"donate":"捐"
	},
	"cookie":"允许 Cookie",
	"disclaim":{
		"exchange":"意识到！ Find Monero 不支持任何这些交换。 一定要研究任何交换服务，但更重要的是； 认为任何交易所的任何硬币都会丢失。不是你的钥匙，不是你的硬币。",
		"merchant":"列入此商家目录并非 Find Monero 的认可。 注意安全！"
	},
	"donate":"绘制和组织已知的门罗世界是一项艰巨的工作。 Find Monero 致力于保持无广告，但需要经济帮助来维持自身和发展。<br><br>Find Monero 的任何盈余将捐赠给  <a href=\"https://www.monerooutreach.org/merchants/monero-merchant-pos-sticker-kit.html\" target=\"_blank\">Monero Merchant POS Sticker Kit Program</a>。",
	"findxmr":"查找门罗币",
	"mapcon":"那么，您喜欢地图吗？ 您是否还为墨卡托投影感到难过？ <span class=\"ContributeTrans C1_link\">gitlab.com/monerooutreach/findmonero.org</span>",
	"mapfoot":"Find Monero 是由 <a href=\"https://www.monerooutreach.org/1-00.html\" target=\"_blank\">Monero Outreach</a> 带给您的。",
	"menu":{
		"buy":"在##C##购买XMR",
		"merchant":"门罗币商人（使用您的XMR）",
		"gallery":"Monero地理："
	},
	"nav":{
		"mdir":{
			"lbl":"目录视图",
			"url":"招商/"
		},
		"map":{
			"lbl":"地图视图",
			"url":"zhs/"
		},
		"contact":{
			"lbl":"贡献",
			"url":"贡献.html"
		},
		"privacy":{
			"lbl":"您的隐私",
			"url":"你的隐私.html"
		},
		"sitemap":{
			"lbl":"站点地图",
			"url":"站点地图.html"
		}
	},
	"or":"或者",
	"src":"来源",
	"trans":"如果有误翻译，请<span class=\"ContributeTrans C1_link\">让我们知道</span>。"
}
